DEAR_DONG/LAB1/03_verif/TB_Top_wave/tb_Top_gen_wave.vcd
$version Generated by VerilatedVcd $end
$timescale 1ps $end
 $scope module TOP $end
  $scope module tb_Top_gen_wave $end
   $var wire 32 1! SIZE_BTN [31:0] $end
   $var wire 32 2! SIZE_SW [31:0] $end
   $var wire 32 2! SIZE_LEDR [31:0] $end
   $var wire 32 1! SIZE_LEDG [31:0] $end
   $var wire 32 3! SIZE_WIDTH [31:0] $end
   $var wire 32 4! SIZE_DEPTH [31:0] $end
   $var wire 32 5! SIZE_SEG [31:0] $end
   $var wire 32 6! NUM_MODE_WAVE [31:0] $end
   $var wire 32 6! NUM_DUTY_CYCLE [31:0] $end
   $var wire 32 6! SIZE_GAIN_WAVE [31:0] $end
   $var wire 1 (! i_clk $end
   $var wire 4 # i_btn [3:0] $end
   $var wire 10 $ i_sw [9:0] $end
   $var wire 1 1 o_add_noise $end
   $var wire 3 2 o_sel_wave [2:0] $end
   $var wire 3 3 o_sel_duty_cycle [2:0] $end
   $var wire 3 4 o_gain_wave [2:0] $end
   $var wire 10 5 o_phase_step_wave [9:0] $end
   $var wire 1 6 o_lfsr_sin $end
   $var wire 10 7 o_phase_step_noise [9:0] $end
   $var wire 3 8 o_gain_noise [2:0] $end
   $var wire 10 )! o_ledr [9:0] $end
   $var wire 4 9 o_ledg [3:0] $end
   $var wire 7 : o_hex_0 [6:0] $end
   $var wire 7 ; o_hex_1 [6:0] $end
   $var wire 7 < o_hex_2 [6:0] $end
   $var wire 7 = o_hex_3 [6:0] $end
   $var wire 7 > o_hex_4 [6:0] $end
   $var wire 7 ? o_hex_5 [6:0] $end
   $scope module DUT $end
    $var wire 32 1! SIZE_BTN [31:0] $end
    $var wire 32 2! SIZE_SW [31:0] $end
    $var wire 32 2! SIZE_LEDR [31:0] $end
    $var wire 32 1! SIZE_LEDG [31:0] $end
    $var wire 32 3! SIZE_WIDTH [31:0] $end
    $var wire 32 4! SIZE_DEPTH [31:0] $end
    $var wire 32 5! SIZE_SEG [31:0] $end
    $var wire 32 6! NUM_MODE_WAVE [31:0] $end
    $var wire 32 6! NUM_DUTY_CYCLE [31:0] $end
    $var wire 32 6! SIZE_GAIN_WAVE [31:0] $end
    $var wire 1 (! i_clk $end
    $var wire 4 # i_btn [3:0] $end
    $var wire 10 $ i_sw [9:0] $end
    $var wire 1 1 o_add_noise $end
    $var wire 3 2 o_sel_wave [2:0] $end
    $var wire 3 3 o_sel_duty_cycle [2:0] $end
    $var wire 4 @ o_gain_wave [3:0] $end
    $var wire 10 5 o_phase_step_wave [9:0] $end
    $var wire 1 6 o_lfsr_sin $end
    $var wire 10 7 o_phase_step_noise [9:0] $end
    $var wire 4 A o_gain_noise [3:0] $end
    $var wire 10 )! o_ledr [9:0] $end
    $var wire 4 9 o_ledg [3:0] $end
    $var wire 7 : o_hex_0 [6:0] $end
    $var wire 7 ; o_hex_1 [6:0] $end
    $var wire 7 < o_hex_2 [6:0] $end
    $var wire 7 = o_hex_3 [6:0] $end
    $var wire 7 > o_hex_4 [6:0] $end
    $var wire 7 ? o_hex_5 [6:0] $end
    $var wire 3 7! SIN [2:0] $end
    $var wire 3 8! SQUARE [2:0] $end
    $var wire 3 9! TRIANGLE [2:0] $end
    $var wire 3 :! SAWTOOTH [2:0] $end
    $var wire 3 ;! ECG [2:0] $end
    $var wire 3 <! LFSR_NOISE [2:0] $end
    $var wire 3 =! SIN_NOISE [2:0] $end
    $var wire 1 *! i_rst_n $end
    $var wire 4 >! w_gain [3:0] $end
    $var wire 1 +! w_en_wave $end
    $var wire 4 @ w_gain_wave [3:0] $end
    $var wire 7 B w_wave_hex_0 [6:0] $end
    $var wire 7 C w_wave_hex_1 [6:0] $end
    $var wire 7 ?! w_wave_hex_2 [6:0] $end
    $var wire 10 5 w_phase_wave [9:0] $end
    $var wire 7 D w_wave_hex_3 [6:0] $end
    $var wire 7 E w_wave_hex_4 [6:0] $end
    $var wire 7 F w_wave_hex_5 [6:0] $end
    $var wire 1 ,! w_en_noise $end
    $var wire 4 A w_gain_noise [3:0] $end
    $var wire 7 G w_noise_hex_0 [6:0] $end
    $var wire 7 H w_noise_hex_1 [6:0] $end
    $var wire 7 @! w_noise_hex_2 [6:0] $end
    $var wire 10 7 w_phase_noise [9:0] $end
    $var wire 7 I w_noise_hex_3 [6:0] $end
    $var wire 7 J w_noise_hex_4 [6:0] $end
    $var wire 7 K w_noise_hex_5 [6:0] $end
    $var wire 1 L w_btn_0 $end
    $var wire 1 M w_btn_1 $end
    $var wire 1 N w_btn_2 $end
    $var wire 1 O w_btn_3 $end
    $var wire 1 -! w_en_add_noise $end
    $var wire 3 % w_sel_wave [2:0] $end
    $var wire 3 & w_sel_duty_cycle [2:0] $end
    $var wire 1 .! w_lfsr_sin $end
    $scope module BTN_DE_unit $end
     $var wire 1 (! i_clk $end
     $var wire 1 *! i_rst_n $end
     $var wire 1 A! i_pos_edge $end
     $var wire 1 ' i_signal $end
     $var wire 1 M o_signal $end
     $var wire 1 P w_p_signal $end
    $upscope $end
    $scope module BTN_DE_unit_0 $end
     $var wire 1 (! i_clk $end
     $var wire 1 *! i_rst_n $end
     $var wire 1 A! i_pos_edge $end
     $var wire 1 ( i_signal $end
     $var wire 1 L o_signal $end
     $var wire 1 Q w_p_signal $end
    $upscope $end
    $scope module BTN_DE_unit_2 $end
     $var wire 1 (! i_clk $end
     $var wire 1 *! i_rst_n $end
     $var wire 1 A! i_pos_edge $end
     $var wire 1 ) i_signal $end
     $var wire 1 N o_signal $end
     $var wire 1 R w_p_signal $end
    $upscope $end
    $scope module BTN_DE_unit_3 $end
     $var wire 1 (! i_clk $end
     $var wire 1 *! i_rst_n $end
     $var wire 1 A! i_pos_edge $end
     $var wire 1 * i_signal $end
     $var wire 1 O o_signal $end
     $var wire 1 S w_p_signal $end
    $upscope $end
    $scope module CTR_adjust_amp_noise_unit $end
     $var wire 32 6! NUM_GAIN_STEP [31:0] $end
     $var wire 32 5! NUM_SEG [31:0] $end
     $var wire 1 (! i_clk $end
     $var wire 1 *! i_rst_n $end
     $var wire 1 ( i_btn_0 $end
     $var wire 1 ) i_btn_1 $end
     $var wire 1 ,! i_en $end
     $var wire 4 A o_gain_wave [3:0] $end
     $var wire 7 G o_hex_0 [6:0] $end
     $var wire 7 H o_hex_1 [6:0] $end
     $var wire 7 @! o_hex_2 [6:0] $end
     $var wire 1 T w_btn $end
     $var wire 1 /! w_en $end
     $var wire 4 U w_step [3:0] $end
     $var wire 4 V w_next_gain [3:0] $end
     $scope module BTN_DE_unit $end
      $var wire 1 (! i_clk $end
      $var wire 1 *! i_rst_n $end
      $var wire 1 A! i_pos_edge $end
      $var wire 1 ) i_signal $end
      $var wire 1 T o_signal $end
      $var wire 1 W w_p_signal $end
     $upscope $end
     $scope module CTR_step_amp_unit $end
      $var wire 32 6! NUM_GAIN_STEP [31:0] $end
      $var wire 32 5! NUM_SEG [31:0] $end
      $var wire 1 (! i_clk $end
      $var wire 1 *! i_rst_n $end
      $var wire 1 ( i_btn $end
      $var wire 1 ,! i_en $end
      $var wire 4 U o_step [3:0] $end
      $var wire 7 G o_hex_0 [6:0] $end
      $var wire 7 H o_hex_1 [6:0] $end
      $var wire 1 X w_btn $end
      $var wire 1 + w_en $end
      $var wire 1 Y w_mode $end
      $var wire 1 Z w_next_mode $end
      $scope module BTN_DE_unit $end
       $var wire 1 (! i_clk $end
       $var wire 1 *! i_rst_n $end
       $var wire 1 A! i_pos_edge $end
       $var wire 1 ( i_signal $end
       $var wire 1 X o_signal $end
       $var wire 1 [ w_p_signal $end
      $upscope $end
     $upscope $end
    $upscope $end
    $scope module CTR_adjust_amp_wave_unit $end
     $var wire 32 6! NUM_GAIN_STEP [31:0] $end
     $var wire 32 5! NUM_SEG [31:0] $end
     $var wire 1 (! i_clk $end
     $var wire 1 *! i_rst_n $end
     $var wire 1 ( i_btn_0 $end
     $var wire 1 ) i_btn_1 $end
     $var wire 1 +! i_en $end
     $var wire 4 @ o_gain_wave [3:0] $end
     $var wire 7 B o_hex_0 [6:0] $end
     $var wire 7 C o_hex_1 [6:0] $end
     $var wire 7 ?! o_hex_2 [6:0] $end
     $var wire 1 \ w_btn $end
     $var wire 1 0! w_en $end
     $var wire 4 ] w_step [3:0] $end
     $var wire 4 ^ w_next_gain [3:0] $end
     $scope module BTN_DE_unit $end
      $var wire 1 (! i_clk $end
      $var wire 1 *! i_rst_n $end
      $var wire 1 A! i_pos_edge $end
      $var wire 1 ) i_signal $end
      $var wire 1 \ o_signal $end
      $var wire 1 _ w_p_signal $end
     $upscope $end
     $scope module CTR_step_amp_unit $end
      $var wire 32 6! NUM_GAIN_STEP [31:0] $end
      $var wire 32 5! NUM_SEG [31:0] $end
      $var wire 1 (! i_clk $end
      $var wire 1 *! i_rst_n $end
      $var wire 1 ( i_btn $end
      $var wire 1 +! i_en $end
      $var wire 4 ] o_step [3:0] $end
      $var wire 7 B o_hex_0 [6:0] $end
      $var wire 7 C o_hex_1 [6:0] $end
      $var wire 1 ` w_btn $end
      $var wire 1 , w_en $end
      $var wire 1 a w_mode $end
      $var wire 1 b w_next_mode $end
      $scope module BTN_DE_unit $end
       $var wire 1 (! i_clk $end
       $var wire 1 *! i_rst_n $end
       $var wire 1 A! i_pos_edge $end
       $var wire 1 ( i_signal $end
       $var wire 1 ` o_signal $end
       $var wire 1 c w_p_signal $end
      $upscope $end
     $upscope $end
    $upscope $end
    $scope module CTR_adjust_phase_noise_unit $end
     $var wire 32 5! SIZE_VALUE [31:0] $end
     $var wire 32 5! SIZE_SEG [31:0] $end
     $var wire 32 B! SIZE_PHASE [31:0] $end
     $var wire 1 (! i_clk $end
     $var wire 1 *! i_rst_n $end
     $var wire 1 ,! i_en $end
     $var wire 1 ( i_btn_0 $end
     $var wire 1 * i_btn_1 $end
     $var wire 9 d o_phase_wave [8:0] $end
     $var wire 7 I o_hex_0 [6:0] $end
     $var wire 7 J o_hex_1 [6:0] $end
     $var wire 7 K o_hex_2 [6:0] $end
     $var wire 1 e w_btn $end
     $var wire 1 - w_en $end
     $var wire 7 f w_step [6:0] $end
     $var wire 10 g w_step_phase [9:0] $end
     $var wire 10 h w_next_step_phase [9:0] $end
     $var wire 10 i w_add_step_phase [9:0] $end
     $var wire 9 j w_phase_wave [8:0] $end
     $scope module BTN_DE_unit $end
      $var wire 1 (! i_clk $end
      $var wire 1 *! i_rst_n $end
      $var wire 1 A! i_pos_edge $end
      $var wire 1 * i_signal $end
      $var wire 1 e o_signal $end
      $var wire 1 k w_p_signal $end
     $upscope $end
     $scope module CTR_step_phase_unit $end
      $var wire 32 5! SIZE_VALUE [31:0] $end
      $var wire 32 5! SIZE_SEG [31:0] $end
      $var wire 1 (! i_clk $end
      $var wire 1 *! i_rst_n $end
      $var wire 1 ,! i_en $end
      $var wire 1 ( i_btn $end
      $var wire 7 f o_step [6:0] $end
      $var wire 7 I o_hex_0 [6:0] $end
      $var wire 7 J o_hex_1 [6:0] $end
      $var wire 7 K o_hex_2 [6:0] $end
      $var wire 1 l w_btn $end
      $var wire 32 6! NUM_STEP [31:0] $end
      $var wire 3 m w_mode [2:0] $end
      $var wire 3 n w_next_mode [2:0] $end
      $var wire 1 . w_en $end
      $scope module BTN_DE_unit $end
       $var wire 1 (! i_clk $end
       $var wire 1 *! i_rst_n $end
       $var wire 1 A! i_pos_edge $end
       $var wire 1 ( i_signal $end
       $var wire 1 l o_signal $end
       $var wire 1 o w_p_signal $end
      $upscope $end
      $scope module SEG_UNIT $end
       $var wire 32 6! NUM_VALUE [31:0] $end
       $var wire 32 5! NUM_SEG [31:0] $end
       $var wire 1 (! i_clk $end
       $var wire 1 *! i_rst_n $end
       $var wire 1 . i_start $end
       $var wire 3 m i_mode [2:0] $end
       $var wire 7 I o_hex_0 [6:0] $end
       $var wire 7 J o_hex_1 [6:0] $end
       $var wire 7 K o_hex_2 [6:0] $end
       $var wire 7 C! SIGN_POS [6:0] $end
       $var wire 7 D! SIGN_NEG [6:0] $end
       $var wire 4 p bin_1 [3:0] $end
       $var wire 4 q bin_2 [3:0] $end
       $var wire 7 r seg_0 [6:0] $end
       $var wire 7 s seg_1 [6:0] $end
       $var wire 7 t seg_2 [6:0] $end
       $scope module HEX_1_unit $end
        $var wire 4 p bin [3:0] $end
        $var wire 7 s seg [6:0] $end
       $upscope $end
       $scope module HEX_2_unit $end
        $var wire 4 q bin [3:0] $end
        $var wire 7 t seg [6:0] $end
       $upscope $end
      $upscope $end
     $upscope $end
    $upscope $end
    $scope module CTR_adjust_phase_wave_unit $end
     $var wire 32 5! SIZE_VALUE [31:0] $end
     $var wire 32 5! SIZE_SEG [31:0] $end
     $var wire 32 B! SIZE_PHASE [31:0] $end
     $var wire 1 (! i_clk $end
     $var wire 1 *! i_rst_n $end
     $var wire 1 +! i_en $end
     $var wire 1 ( i_btn_0 $end
     $var wire 1 * i_btn_1 $end
     $var wire 9 u o_phase_wave [8:0] $end
     $var wire 7 D o_hex_0 [6:0] $end
     $var wire 7 E o_hex_1 [6:0] $end
     $var wire 7 F o_hex_2 [6:0] $end
     $var wire 1 v w_btn $end
     $var wire 1 / w_en $end
     $var wire 7 w w_step [6:0] $end
     $var wire 10 x w_step_phase [9:0] $end
     $var wire 10 y w_next_step_phase [9:0] $end
     $var wire 10 z w_add_step_phase [9:0] $end
     $var wire 9 { w_phase_wave [8:0] $end
     $scope module BTN_DE_unit $end
      $var wire 1 (! i_clk $end
      $var wire 1 *! i_rst_n $end
      $var wire 1 A! i_pos_edge $end
      $var wire 1 * i_signal $end
      $var wire 1 v o_signal $end
      $var wire 1 | w_p_signal $end
     $upscope $end
     $scope module CTR_step_phase_unit $end
      $var wire 32 5! SIZE_VALUE [31:0] $end
      $var wire 32 5! SIZE_SEG [31:0] $end
      $var wire 1 (! i_clk $end
      $var wire 1 *! i_rst_n $end
      $var wire 1 +! i_en $end
      $var wire 1 ( i_btn $end
      $var wire 7 w o_step [6:0] $end
      $var wire 7 D o_hex_0 [6:0] $end
      $var wire 7 E o_hex_1 [6:0] $end
      $var wire 7 F o_hex_2 [6:0] $end
      $var wire 1 } w_btn $end
      $var wire 32 6! NUM_STEP [31:0] $end
      $var wire 3 ~ w_mode [2:0] $end
      $var wire 3 !! w_next_mode [2:0] $end
      $var wire 1 0 w_en $end
      $scope module BTN_DE_unit $end
       $var wire 1 (! i_clk $end
       $var wire 1 *! i_rst_n $end
       $var wire 1 A! i_pos_edge $end
       $var wire 1 ( i_signal $end
       $var wire 1 } o_signal $end
       $var wire 1 "! w_p_signal $end
      $upscope $end
      $scope module SEG_UNIT $end
       $var wire 32 6! NUM_VALUE [31:0] $end
       $var wire 32 5! NUM_SEG [31:0] $end
       $var wire 1 (! i_clk $end
       $var wire 1 *! i_rst_n $end
       $var wire 1 0 i_start $end
       $var wire 3 ~ i_mode [2:0] $end
       $var wire 7 D o_hex_0 [6:0] $end
       $var wire 7 E o_hex_1 [6:0] $end
       $var wire 7 F o_hex_2 [6:0] $end
       $var wire 7 C! SIGN_POS [6:0] $end
       $var wire 7 D! SIGN_NEG [6:0] $end
       $var wire 4 #! bin_1 [3:0] $end
       $var wire 4 $! bin_2 [3:0] $end
       $var wire 7 %! seg_0 [6:0] $end
       $var wire 7 &! seg_1 [6:0] $end
       $var wire 7 '! seg_2 [6:0] $end
       $scope module HEX_1_unit $end
        $var wire 4 #! bin [3:0] $end
        $var wire 7 &! seg [6:0] $end
       $upscope $end
       $scope module HEX_2_unit $end
        $var wire 4 $! bin [3:0] $end
        $var wire 7 '! seg [6:0] $end
       $upscope $end
      $upscope $end
     $upscope $end
    $upscope $end
   $upscope $end
  $upscope $end
 $upscope $end
$enddefinitions $end


#0
b1111 #
b0000000000 $
b000 %
b000 &
1'
1(
1)
1*
0+
0,
0-
0.
0/
00
01
b000 2
b000 3
b000 4
b0000000000 5
06
b0000000000 7
b000 8
b0000 9
b0000000 :
b0000000 ;
b0000000 <
b0000000 =
b0000000 >
b0000000 ?
b0000 @
b0000 A
b0000000 B
b0000000 C
b0000000 D
b0000000 E
b0000000 F
b0000000 G
b0000000 H
b0000000 I
b0000000 J
b0000000 K
0L
0M
0N
0O
0P
0Q
0R
0S
0T
b0000 U
b0000 V
0W
0X
0Y
1Z
0[
0\
b0000 ]
b0000 ^
0_
0`
0a
1b
0c
b000000000 d
0e
b1111111 f
b0000000000 g
b0111111111 h
b0111111111 i
b000000000 j
0k
0l
b000 m
b001 n
0o
b0001 p
b1111 q
b1111101 r
b1001111 s
b1111111 t
b000000000 u
0v
b1111111 w
b0000000000 x
b0111111111 y
b0111111111 z
b000000000 {
0|
0}
b000 ~
b001 !!
0"!
b0001 #!
b1111 $!
b1111101 %!
b1001111 &!
b1111111 '!
0(!
b0000000000 )!
0*!
1+!
0,!
0-!
0.!
0/!
00!
b00000000000000000000000000000100 1!
b00000000000000000000000000001010 2!
b00000000000000000000000000011000 3!
b00000000000000000000010000000000 4!
b00000000000000000000000000000111 5!
b00000000000000000000000000000011 6!
b000 7!
b001 8!
b010 9!
b011 :!
b100 ;!
b110 <!
b111 =!
b0000 >!
b0000000 ?!
b0000000 @!
0A!
b00000000000000000000000000001001 B!
b1111111 C!
b1111101 D!
#5
b100 3
b100 4
b001 8
b1111111 :
b1111111 ;
b1111111 <
b1111111 =
b1111111 >
b1111111 ?
b0100 @
b0001 A
b1111111 B
b1111111 C
b0000001 D
b0000001 E
b0000001 F
b1111111 G
b1111111 H
b0000001 I
b0000001 J
b0000001 K
b0001 U
b0010 V
b0001 ]
b0101 ^
b0000001 f
b0000000001 h
b0000000001 i
b001 m
b010 n
b1111111 r
b0000001 w
b0000000001 y
b0000000001 z
b001 ~
b010 !!
b1111111 %!
1(!
b0000010000 )!
#10
0(!
#15
1(!
#20
b1000000000 $
0(!
b1000010000 )!
1*!
#25
b0000000 <
b0000001 =
b0000001 >
b0000001 ?
1P
1Q
1R
1S
1W
1[
1_
1c
1k
1o
1|
1"!
1(!
#30
0(!
#35
1(!
#40
0(!
#45
1(!
#50
0(!
#55
1(!
#60
0(!
#65
1(!
#70
0(!
#75
1(!
#80
0(!
#85
1(!
#90
0(!
#95
1(!
#100
0(!
#105
1(!
#110
0(!
#115
1(!
#120
0(!
#125
1(!
#130
0(!
#135
1(!
#140
0(!
#145
b1110 #
0(
1,
10
b0001 9
1L
0Q
1X
0[
1`
0c
1l
0o
1}
0"!
1(!
#150
0(!
#155
b1111 #
1(
0,
00
b0000 9
b1001111 B
b1111101 C
b1111111 D
b1001111 E
b1111111 F
0L
1Q
0X
1[
0`
1a
0b
1c
0l
1o
b1111100 w
b0111111100 y
b0111111100 z
0}
b010 ~
b011 !!
1"!
b0100 #!
b1111101 %!
b1001100 &!
1(!
#160
0(!
#165
b1001111 :
b1111101 ;
b1111111 =
b1001111 >
b1111111 ?
1(!
#170
0(!
#175
1(!
#180
0(!
#185
1(!
#190
0(!
#195
1(!
#200
0(!
#205
1(!
#210
0(!
#215
1(!
#220
0(!
#225
1(!
#230
0(!
#235
1(!
#240
0(!
#245
1(!
#250
0(!
#255
1(!
#260
0(!
#265
b1110 #
0(
1,
10
b0001 9
1L
0Q
1X
0[
1`
0c
1l
0o
1}
0"!
1(!
#270
0(!
#275
b1111 #
1(
0,
00
b0000 9
b1111111 C
b1111101 D
b1001100 E
0L
1Q
0X
1[
b1111 ]
b0011 ^
0`
0a
1b
1c
0l
1o
b0000100 w
b0000000100 y
b0000000100 z
0}
b011 ~
b100 !!
1"!
b1111111 %!
1(!
#280
0(!
#285
b1111111 ;
b1111101 =
b1001100 >
1(!
#290
0(!
#295
1(!
#300
0(!
#305
1(!
#310
0(!
#315
1(!
#320
0(!
#325
1(!
#330
0(!
#335
1(!
#340
0(!
#345
1(!
#350
0(!
#355
1(!
#360
0(!
#365
1(!
#370
0(!
#375
1(!
#380
0(!
#385
b1110 #
0(
1,
10
b0001 9
1L
0Q
1X
0[
1`
0c
1l
0o
1}
0"!
1(!
#390
0(!
#395
b1111 #
1(
0,
00
b0000 9
b1111101 C
b1111111 D
0L
1Q
0X
1[
b0001 ]
b0101 ^
0`
1a
0b
1c
0l
1o
b1110000 w
b0111110000 y
b0111110000 z
0}
b100 ~
b101 !!
1"!
b0000 $!
b1111101 %!
b0000001 '!
1(!
#400
0(!
#405
b1111101 ;
b1111111 =
1(!
#410
0(!
#415
1(!
#420
0(!
#425
1(!
#430
0(!
#435
1(!
#440
0(!
#445
1(!
#450
0(!
#455
1(!
#460
0(!
#465
1(!
#470
0(!
#475
1(!
#480
0(!
#485
1(!
#490
0(!
#495
1(!
#500
0(!
#505
b1101 #
0'
b0010 9
1M
0P
1(!
#510
0(!
#515
b1111 #
1'
b000 3
b0000 9
0M
1P
1(!
b1000000000 )!
