DEAR_DONG/I2C_IP/03_verif/MODULE/COMMON/START_CONDITION/tb_Start_condition.vcd
$version Generated by VerilatedVcd $end
$timescale 1ps $end
 $scope module TOP $end
  $scope module tb_Start_condition $end
   $var wire 1 ( i_clk $end
   $var wire 1 ) i_rst_n $end
   $var wire 1 * i_en $end
   $var wire 1 + i_SCL $end
   $var wire 1 # o_SDA $end
   $var wire 1 $ o_done $end
   $scope module DUT $end
    $var wire 1 ( i_clk $end
    $var wire 1 ) i_rst_n $end
    $var wire 1 * i_en $end
    $var wire 1 + i_SCL $end
    $var wire 1 # o_SDA $end
    $var wire 1 $ o_done $end
    $var wire 1 % w_en $end
    $var wire 2 & phase [1:0] $end
    $var wire 2 , n_phase [1:0] $end
    $scope module Detect_edge_unit $end
     $var wire 1 ( i_clk $end
     $var wire 1 ) i_rst_n $end
     $var wire 1 - i_pos_edge $end
     $var wire 1 * i_signal $end
     $var wire 1 % o_signal $end
     $var wire 1 ' w_p_signal $end
    $upscope $end
   $upscope $end
  $upscope $end
 $upscope $end
$enddefinitions $end


#0
0#
0$
0%
b00 &
0'
0(
0)
0*
1+
b00 ,
1-
#5000
1#
1(
#10000
0(
#15000
1(
#20000
0(
1)
#25000
1(
#30000
0(
#35000
1(
#40000
0(
#45000
1%
1'
1(
1*
b01 ,
#50000
0(
#55000
0%
b01 &
0'
1(
0*
b10 ,
#60000
0(
#65000
0#
b10 &
1(
b11 ,
#70000
0(
#75000
b11 &
1(
b00 ,
#80000
0(
#85000
1$
b00 &
1(
#90000
0(
#95000
1#
0$
1(
#100000
0(
#105000
1%
1'
1(
1*
0+
#110000
0(
#115000
0%
0'
1(
0*
